e16-co502-RV32IM-NoC-implementation/cpu/data_cache_module/data_cache_wavedata.vcd
$date
	Fri Jul 28 01:19:06 2023
$end
$version
	Icarus Verilog
$end
$timescale
	1s
$end
$scope module data_cache_tb $end
$var wire 32 ! READDATA [31:0] $end
$var wire 128 " MEM_WRITEDATA [127:0] $end
$var wire 1 # MEM_WRITE $end
$var wire 128 $ MEM_READDATA [127:0] $end
$var wire 1 % MEM_READ $end
$var wire 1 & MEM_BUSYWAIT $end
$var wire 28 ' MEM_ADDRESS [27:0] $end
$var wire 1 ( BUSYWAIT $end
$var reg 32 ) ADDRESS [31:0] $end
$var reg 1 * CLK $end
$var reg 4 + READ_WRITE [3:0] $end
$var reg 1 , RESET $end
$var reg 32 - WRITEDATA [31:0] $end
$var integer 32 . j [31:0] $end
$scope module my_data_cache $end
$var wire 32 / ADDRESS [31:0] $end
$var wire 1 * CLK $end
$var wire 128 0 DATA_OUT [127:0] $end
$var wire 1 1 DIRTY_OUT $end
$var wire 1 2 HIT $end
$var wire 32 3 LBU [31:0] $end
$var wire 32 4 LHU [31:0] $end
$var wire 32 5 LW [31:0] $end
$var wire 4 6 READ_WRITE [3:0] $end
$var wire 1 , RESET $end
$var wire 24 7 TAG_OUT [23:0] $end
$var wire 1 8 VALID_OUT $end
$var wire 32 9 WRITEDATA [31:0] $end
$var wire 1 : TAG_STATUS $end
$var wire 128 ; MEM_READDATA [127:0] $end
$var wire 1 & MEM_BUSYWAIT $end
$var wire 32 < LH [31:0] $end
$var wire 32 = LB [31:0] $end
$var reg 1 ( BUSYWAIT $end
$var reg 8 > DATA_BYTE [7:0] $end
$var reg 16 ? DATA_HALF [15:0] $end
$var reg 32 @ DATA_WORD [31:0] $end
$var reg 28 A MEM_ADDRESS [27:0] $end
$var reg 1 % MEM_READ $end
$var reg 1 # MEM_WRITE $end
$var reg 128 B MEM_WRITEDATA [127:0] $end
$var reg 2 C NEXT_STATE [1:0] $end
$var reg 32 D READDATA [31:0] $end
$var reg 2 E STATE [1:0] $end
$var integer 32 F i [31:0] $end
$upscope $end
$scope module my_data_memory $end
$var wire 28 G ADDRESS [27:0] $end
$var wire 1 * CLK $end
$var wire 1 % READ $end
$var wire 1 , RESET $end
$var wire 1 # WRITE $end
$var wire 128 H WRITEDATA [127:0] $end
$var reg 1 & BUSYWAIT $end
$var reg 1 I READACCESS $end
$var reg 128 J READDATA [127:0] $end
$var reg 1 K WRITEACCESS $end
$var integer 32 L i [31:0] $end
$upscope $end
$upscope $end
$scope module data_cache_tb $end
$scope module my_data_cache $end
$var reg 128 M \DATA[0] [127:0] $end
$upscope $end
$upscope $end
$scope module data_cache_tb $end
$scope module my_data_cache $end
$var reg 128 N \DATA[1] [127:0] $end
$upscope $end
$upscope $end
$scope module data_cache_tb $end
$scope module my_data_cache $end
$var reg 128 O \DATA[2] [127:0] $end
$upscope $end
$upscope $end
$scope module data_cache_tb $end
$scope module my_data_cache $end
$var reg 128 P \DATA[3] [127:0] $end
$upscope $end
$upscope $end
$scope module data_cache_tb $end
$scope module my_data_cache $end
$var reg 128 Q \DATA[4] [127:0] $end
$upscope $end
$upscope $end
$scope module data_cache_tb $end
$scope module my_data_cache $end
$var reg 128 R \DATA[5] [127:0] $end
$upscope $end
$upscope $end
$scope module data_cache_tb $end
$scope module my_data_cache $end
$var reg 128 S \DATA[6] [127:0] $end
$upscope $end
$upscope $end
$scope module data_cache_tb $end
$scope module my_data_cache $end
$var reg 128 T \DATA[7] [127:0] $end
$upscope $end
$upscope $end
$scope module data_cache_tb $end
$scope module my_data_cache $end
$var reg 128 U \DATA[8] [127:0] $end
$upscope $end
$upscope $end
$scope module data_cache_tb $end
$scope module my_data_cache $end
$var reg 128 V \DATA[9] [127:0] $end
$upscope $end
$upscope $end
$scope module data_cache_tb $end
$scope module my_data_cache $end
$var reg 128 W \DATA[10] [127:0] $end
$upscope $end
$upscope $end
$scope module data_cache_tb $end
$scope module my_data_cache $end
$var reg 128 X \DATA[11] [127:0] $end
$upscope $end
$upscope $end
$scope module data_cache_tb $end
$scope module my_data_cache $end
$var reg 128 Y \DATA[12] [127:0] $end
$upscope $end
$upscope $end
$scope module data_cache_tb $end
$scope module my_data_cache $end
$var reg 128 Z \DATA[13] [127:0] $end
$upscope $end
$upscope $end
$scope module data_cache_tb $end
$scope module my_data_cache $end
$var reg 128 [ \DATA[14] [127:0] $end
$upscope $end
$upscope $end
$scope module data_cache_tb $end
$scope module my_data_cache $end
$var reg 128 \ \DATA[15] [127:0] $end
$upscope $end
$upscope $end
$scope module data_cache_tb $end
$scope module my_data_cache $end
$var reg 24 ] \TAG[0] [23:0] $end
$upscope $end
$upscope $end
$scope module data_cache_tb $end
$scope module my_data_cache $end
$var reg 24 ^ \TAG[1] [23:0] $end
$upscope $end
$upscope $end
$scope module data_cache_tb $end
$scope module my_data_cache $end
$var reg 24 _ \TAG[2] [23:0] $end
$upscope $end
$upscope $end
$scope module data_cache_tb $end
$scope module my_data_cache $end
$var reg 24 ` \TAG[3] [23:0] $end
$upscope $end
$upscope $end
$scope module data_cache_tb $end
$scope module my_data_cache $end
$var reg 24 a \TAG[4] [23:0] $end
$upscope $end
$upscope $end
$scope module data_cache_tb $end
$scope module my_data_cache $end
$var reg 24 b \TAG[5] [23:0] $end
$upscope $end
$upscope $end
$scope module data_cache_tb $end
$scope module my_data_cache $end
$var reg 24 c \TAG[6] [23:0] $end
$upscope $end
$upscope $end
$scope module data_cache_tb $end
$scope module my_data_cache $end
$var reg 24 d \TAG[7] [23:0] $end
$upscope $end
$upscope $end
$scope module data_cache_tb $end
$scope module my_data_cache $end
$var reg 24 e \TAG[8] [23:0] $end
$upscope $end
$upscope $end
$scope module data_cache_tb $end
$scope module my_data_cache $end
$var reg 24 f \TAG[9] [23:0] $end
$upscope $end
$upscope $end
$scope module data_cache_tb $end
$scope module my_data_cache $end
$var reg 24 g \TAG[10] [23:0] $end
$upscope $end
$upscope $end
$scope module data_cache_tb $end
$scope module my_data_cache $end
$var reg 24 h \TAG[11] [23:0] $end
$upscope $end
$upscope $end
$scope module data_cache_tb $end
$scope module my_data_cache $end
$var reg 24 i \TAG[12] [23:0] $end
$upscope $end
$upscope $end
$scope module data_cache_tb $end
$scope module my_data_cache $end
$var reg 24 j \TAG[13] [23:0] $end
$upscope $end
$upscope $end
$scope module data_cache_tb $end
$scope module my_data_cache $end
$var reg 24 k \TAG[14] [23:0] $end
$upscope $end
$upscope $end
$scope module data_cache_tb $end
$scope module my_data_cache $end
$var reg 24 l \TAG[15] [23:0] $end
$upscope $end
$upscope $end
$scope module data_cache_tb $end
$scope module my_data_cache $end
$var reg 1 m \DIRTY[0] $end
$upscope $end
$upscope $end
$scope module data_cache_tb $end
$scope module my_data_cache $end
$var reg 1 n \DIRTY[1] $end
$upscope $end
$upscope $end
$scope module data_cache_tb $end
$scope module my_data_cache $end
$var reg 1 o \DIRTY[2] $end
$upscope $end
$upscope $end
$scope module data_cache_tb $end
$scope module my_data_cache $end
$var reg 1 p \DIRTY[3] $end
$upscope $end
$upscope $end
$scope module data_cache_tb $end
$scope module my_data_cache $end
$var reg 1 q \DIRTY[4] $end
$upscope $end
$upscope $end
$scope module data_cache_tb $end
$scope module my_data_cache $end
$var reg 1 r \DIRTY[5] $end
$upscope $end
$upscope $end
$scope module data_cache_tb $end
$scope module my_data_cache $end
$var reg 1 s \DIRTY[6] $end
$upscope $end
$upscope $end
$scope module data_cache_tb $end
$scope module my_data_cache $end
$var reg 1 t \DIRTY[7] $end
$upscope $end
$upscope $end
$scope module data_cache_tb $end
$scope module my_data_cache $end
$var reg 1 u \DIRTY[8] $end
$upscope $end
$upscope $end
$scope module data_cache_tb $end
$scope module my_data_cache $end
$var reg 1 v \DIRTY[9] $end
$upscope $end
$upscope $end
$scope module data_cache_tb $end
$scope module my_data_cache $end
$var reg 1 w \DIRTY[10] $end
$upscope $end
$upscope $end
$scope module data_cache_tb $end
$scope module my_data_cache $end
$var reg 1 x \DIRTY[11] $end
$upscope $end
$upscope $end
$scope module data_cache_tb $end
$scope module my_data_cache $end
$var reg 1 y \DIRTY[12] $end
$upscope $end
$upscope $end
$scope module data_cache_tb $end
$scope module my_data_cache $end
$var reg 1 z \DIRTY[13] $end
$upscope $end
$upscope $end
$scope module data_cache_tb $end
$scope module my_data_cache $end
$var reg 1 { \DIRTY[14] $end
$upscope $end
$upscope $end
$scope module data_cache_tb $end
$scope module my_data_cache $end
$var reg 1 | \DIRTY[15] $end
$upscope $end
$upscope $end
$scope module data_cache_tb $end
$scope module my_data_cache $end
$var reg 1 } \VALID[0] $end
$upscope $end
$upscope $end
$scope module data_cache_tb $end
$scope module my_data_cache $end
$var reg 1 ~ \VALID[1] $end
$upscope $end
$upscope $end
$scope module data_cache_tb $end
$scope module my_data_cache $end
$var reg 1 !" \VALID[2] $end
$upscope $end
$upscope $end
$scope module data_cache_tb $end
$scope module my_data_cache $end
$var reg 1 "" \VALID[3] $end
$upscope $end
$upscope $end
$scope module data_cache_tb $end
$scope module my_data_cache $end
$var reg 1 #" \VALID[4] $end
$upscope $end
$upscope $end
$scope module data_cache_tb $end
$scope module my_data_cache $end
$var reg 1 $" \VALID[5] $end
$upscope $end
$upscope $end
$scope module data_cache_tb $end
$scope module my_data_cache $end
$var reg 1 %" \VALID[6] $end
$upscope $end
$upscope $end
$scope module data_cache_tb $end
$scope module my_data_cache $end
$var reg 1 &" \VALID[7] $end
$upscope $end
$upscope $end
$scope module data_cache_tb $end
$scope module my_data_cache $end
$var reg 1 '" \VALID[8] $end
$upscope $end
$upscope $end
$scope module data_cache_tb $end
$scope module my_data_cache $end
$var reg 1 (" \VALID[9] $end
$upscope $end
$upscope $end
$scope module data_cache_tb $end
$scope module my_data_cache $end
$var reg 1 )" \VALID[10] $end
$upscope $end
$upscope $end
$scope module data_cache_tb $end
$scope module my_data_cache $end
$var reg 1 *" \VALID[11] $end
$upscope $end
$upscope $end
$scope module data_cache_tb $end
$scope module my_data_cache $end
$var reg 1 +" \VALID[12] $end
$upscope $end
$upscope $end
$scope module data_cache_tb $end
$scope module my_data_cache $end
$var reg 1 ," \VALID[13] $end
$upscope $end
$upscope $end
$scope module data_cache_tb $end
$scope module my_data_cache $end
$var reg 1 -" \VALID[14] $end
$upscope $end
$upscope $end
$scope module data_cache_tb $end
$scope module my_data_cache $end
$var reg 1 ." \VALID[15] $end
$upscope $end
$upscope $end
$scope module data_cache_tb $end
$scope module my_data_memory $end
$var reg 8 /" \MEM_ARRAY[0] [7:0] $end
$upscope $end
$upscope $end
$scope module data_cache_tb $end
$scope module my_data_memory $end
$var reg 8 0" \MEM_ARRAY[1] [7:0] $end
$upscope $end
$upscope $end
$scope module data_cache_tb $end
$scope module my_data_memory $end
$var reg 8 1" \MEM_ARRAY[2] [7:0] $end
$upscope $end
$upscope $end
$scope module data_cache_tb $end
$scope module my_data_memory $end
$var reg 8 2" \MEM_ARRAY[3] [7:0] $end
$upscope $end
$upscope $end
$scope module data_cache_tb $end
$scope module my_data_memory $end
$var reg 8 3" \MEM_ARRAY[4] [7:0] $end
$upscope $end
$upscope $end
$scope module data_cache_tb $end
$scope module my_data_memory $end
$var reg 8 4" \MEM_ARRAY[5] [7:0] $end
$upscope $end
$upscope $end
$scope module data_cache_tb $end
$scope module my_data_memory $end
$var reg 8 5" \MEM_ARRAY[6] [7:0] $end
$upscope $end
$upscope $end
$scope module data_cache_tb $end
$scope module my_data_memory $end
$var reg 8 6" \MEM_ARRAY[7] [7:0] $end
$upscope $end
$upscope $end
$scope module data_cache_tb $end
$scope module my_data_memory $end
$var reg 8 7" \MEM_ARRAY[8] [7:0] $end
$upscope $end
$upscope $end
$scope module data_cache_tb $end
$scope module my_data_memory $end
$var reg 8 8" \MEM_ARRAY[9] [7:0] $end
$upscope $end
$upscope $end
$scope module data_cache_tb $end
$scope module my_data_memory $end
$var reg 8 9" \MEM_ARRAY[10] [7:0] $end
$upscope $end
$upscope $end
$scope module data_cache_tb $end
$scope module my_data_memory $end
$var reg 8 :" \MEM_ARRAY[11] [7:0] $end
$upscope $end
$upscope $end
$scope module data_cache_tb $end
$scope module my_data_memory $end
$var reg 8 ;" \MEM_ARRAY[12] [7:0] $end
$upscope $end
$upscope $end
$scope module data_cache_tb $end
$scope module my_data_memory $end
$var reg 8 <" \MEM_ARRAY[13] [7:0] $end
$upscope $end
$upscope $end
$scope module data_cache_tb $end
$scope module my_data_memory $end
$var reg 8 =" \MEM_ARRAY[14] [7:0] $end
$upscope $end
$upscope $end
$scope module data_cache_tb $end
$scope module my_data_memory $end
$var reg 8 >" \MEM_ARRAY[15] [7:0] $end
$upscope $end
$upscope $end
$scope module data_cache_tb $end
$scope module my_data_memory $end
$var reg 8 ?" \MEM_ARRAY[16] [7:0] $end
$upscope $end
$upscope $end
$scope module data_cache_tb $end
$scope module my_data_memory $end
$var reg 8 @" \MEM_ARRAY[17] [7:0] $end
$upscope $end
$upscope $end
$scope module data_cache_tb $end
$scope module my_data_memory $end
$var reg 8 A" \MEM_ARRAY[18] [7:0] $end
$upscope $end
$upscope $end
$scope module data_cache_tb $end
$scope module my_data_memory $end
$var reg 8 B" \MEM_ARRAY[19] [7:0] $end
$upscope $end
$upscope $end
$scope module data_cache_tb $end
$scope module my_data_memory $end
$var reg 8 C" \MEM_ARRAY[20] [7:0] $end
$upscope $end
$upscope $end
$scope module data_cache_tb $end
$scope module my_data_memory $end
$var reg 8 D" \MEM_ARRAY[21] [7:0] $end
$upscope $end
$upscope $end
$scope module data_cache_tb $end
$scope module my_data_memory $end
$var reg 8 E" \MEM_ARRAY[22] [7:0] $end
$upscope $end
$upscope $end
$scope module data_cache_tb $end
$scope module my_data_memory $end
$var reg 8 F" \MEM_ARRAY[23] [7:0] $end
$upscope $end
$upscope $end
$scope module data_cache_tb $end
$scope module my_data_memory $end
$var reg 8 G" \MEM_ARRAY[24] [7:0] $end
$upscope $end
$upscope $end
$scope module data_cache_tb $end
$scope module my_data_memory $end
$var reg 8 H" \MEM_ARRAY[25] [7:0] $end
$upscope $end
$upscope $end
$scope module data_cache_tb $end
$scope module my_data_memory $end
$var reg 8 I" \MEM_ARRAY[26] [7:0] $end
$upscope $end
$upscope $end
$scope module data_cache_tb $end
$scope module my_data_memory $end
$var reg 8 J" \MEM_ARRAY[27] [7:0] $end
$upscope $end
$upscope $end
$scope module data_cache_tb $end
$scope module my_data_memory $end
$var reg 8 K" \MEM_ARRAY[28] [7:0] $end
$upscope $end
$upscope $end
$scope module data_cache_tb $end
$scope module my_data_memory $end
$var reg 8 L" \MEM_ARRAY[29] [7:0] $end
$upscope $end
$upscope $end
$scope module data_cache_tb $end
$scope module my_data_memory $end
$var reg 8 M" \MEM_ARRAY[30] [7:0] $end
$upscope $end
$upscope $end
$scope module data_cache_tb $end
$scope module my_data_memory $end
$var reg 8 N" \MEM_ARRAY[31] [7:0] $end
$upscope $end
$upscope $end
$enddefinitions $end
#0
$dumpvars
bx N"
bx M"
bx L"
bx K"
bx J"
bx I"
bx H"
bx G"
bx F"
bx E"
bx D"
bx C"
bx B"
bx A"
bx @"
bx ?"
bx >"
bx ="
bx <"
bx ;"
bx :"
bx 9"
bx 8"
bx 7"
bx 6"
bx 5"
bx 4"
bx 3"
bx 2"
bx 1"
bx 0"
bx /"
x."
x-"
x,"
x+"
x*"
x)"
x("
x'"
x&"
x%"
x$"
x#"
x""
x!"
x~
x}
x|
x{
xz
xy
xx
xw
xv
xu
xt
xs
xr
xq
xp
xo
xn
xm
bx l
bx k
bx j
bx i
bx h
bx g
bx f
bx e
bx d
bx c
bx b
bx a
bx `
bx _
bx ^
bx ]
bx \
bx [
bx Z
bx Y
bx X
bx W
bx V
bx U
bx T
bx S
bx R
bx Q
bx P
bx O
bx N
bx M
bx L
xK
bx J
xI
bx H
bx G
bx F
bx E
bx D
bx C
bx B
bx A
bx @
bx ?
bx >
bx =
bx <
bx ;
x:
bx 9
x8
bx 7
bx 6
bx 5
b0xxxxxxxxxxxxxxxx 4
b0xxxxxxxx 3
x2
x1
bx 0
bx /
b100000 .
bx -
x,
bx +
1*
bx )
x(
bx '
x&
x%
bx $
x#
bx "
bx !
$end
#1
0,
#2
0#
0%
b0 C
bx \
bx l
0|
0."
bx [
bx k
0{
0-"
bx Z
bx j
0z
0,"
bx Y
bx i
0y
0+"
bx X
bx h
0x
0*"
bx W
bx g
0w
0)"
bx V
bx f
0v
0("
bx U
bx e
0u
0'"
bx T
bx d
0t
0&"
bx S
bx c
0s
0%"
bx R
bx b
0r
0$"
bx Q
bx a
0q
0#"
bx P
bx `
0p
0""
bx O
bx _
0o
0!"
bx N
bx ^
0n
0~
bx M
0(
bx ]
0m
0}
b10000 F
b0 E
0K
0I
0&
b0 N"
b0 M"
b0 L"
b0 K"
b0 J"
b0 I"
b0 H"
b0 G"
b0 F"
b0 E"
b0 D"
b0 C"
b0 B"
b0 A"
b0 @"
b0 ?"
b0 >"
b0 ="
b0 <"
b0 ;"
b0 :"
b0 9"
b0 8"
b0 7"
b0 6"
b0 5"
b0 4"
b0 3"
b0 2"
b0 1"
b0 0"
b0 /"
b10000000000000000000 L
1,
#3
1(
b0 )
b0 /
b1010 +
b1010 6
0,
#4
b10 C
02
08
01
0*
#8
1I
1&
b0 '
b0 A
b0 G
1%
b10 C
b10 E
1*
#12
0*
#16
1*
#20
0*
#24
1*
#28
0*
#32
1*
#36
0*
#40
1*
#44
0*
#48
1*
#52
0*
#56
1*
bx00000000 $
bx00000000 ;
bx00000000 J
#60
0*
#64
1*
#68
0*
#72
1*
#76
0*
#80
1*
#84
0*
#88
1*
#92
0*
#96
1*
bx0000000000000000 $
bx0000000000000000 ;
bx0000000000000000 J
#100
0*
#104
1*
#108
0*
#112
1*
#116
0*
#120
1*
#124
0*
#128
1*
#132
0*
#136
1*
bx000000000000000000000000 $
bx000000000000000000000000 ;
bx000000000000000000000000 J
#140
0*
#144
1*
#148
0*
#152
1*
#156
0*
#160
1*
#164
0*
#168
1*
#172
0*
#176
1*
bx00000000000000000000000000000000 $
bx00000000000000000000000000000000 ;
bx00000000000000000000000000000000 J
#180
0*
#184
1*
#186
b10101011110011010001001000110100 -
b10101011110011010001001000110100 9
b1011 +
b1011 6
#188
0*
#192
1*
#196
0*
b1000 +
b1000 6
#200
1*
#204
0*
#208
1*
#212
0*
#216
1*
bx0000000000000000000000000000000000000000 $
bx0000000000000000000000000000000000000000 ;
bx0000000000000000000000000000000000000000 J
#220
0*
#224
1*
#228
0*
#232
1*
#236
0*
#240
1*
#244
0*
#248
1*
#252
0*
#256
1*
bx000000000000000000000000000000000000000000000000 $
bx000000000000000000000000000000000000000000000000 ;
bx000000000000000000000000000000000000000000000000 J
#260
0*
#264
1*
#268
0*
#272
1*
#276
0*
#280
1*
#284
0*
#288
1*
#292
0*
#296
1*
bx00000000000000000000000000000000000000000000000000000000 $
bx00000000000000000000000000000000000000000000000000000000 ;
bx00000000000000000000000000000000000000000000000000000000 J
#300
0*
#304
1*
#308
0*
#312
1*
#316
0*
#320
1*
#324
0*
#328
1*
#332
0*
#336
1*
bx0000000000000000000000000000000000000000000000000000000000000000 $
bx0000000000000000000000000000000000000000000000000000000000000000 ;
bx0000000000000000000000000000000000000000000000000000000000000000 J
#340
0*
#344
1*
#348
0*
#352
1*
#356
0*
#360
1*
#364
0*
#368
1*
#372
0*
#376
1*
bx000000000000000000000000000000000000000000000000000000000000000000000000 $
bx000000000000000000000000000000000000000000000000000000000000000000000000 ;
bx000000000000000000000000000000000000000000000000000000000000000000000000 J
#380
0*
#384
1*
#388
0*
#392
1*
#396
0*
#400
1*
#404
0*
#408
1*
#412
0*
#416
1*
bx00000000000000000000000000000000000000000000000000000000000000000000000000000000 $
bx00000000000000000000000000000000000000000000000000000000000000000000000000000000 ;
bx00000000000000000000000000000000000000000000000000000000000000000000000000000000 J
#420
0*
#424
1*
#428
0*
#432
1*
#436
0*
#440
1*
#444
0*
#448
1*
#452
0*
#456
1*
bx0000000000000000000000000000000000000000000000000000000000000000000000000000000000000000 $
bx0000000000000000000000000000000000000000000000000000000000000000000000000000000000000000 ;
bx0000000000000000000000000000000000000000000000000000000000000000000000000000000000000000 J
#460
0*
#464
1*
#468
0*
#472
1*
#476
0*
#480
1*
#484
0*
#488
1*
#492
0*
#496
1*
bx000000000000000000000000000000000000000000000000000000000000000000000000000000000000000000000000 $
bx000000000000000000000000000000000000000000000000000000000000000000000000000000000000000000000000 ;
bx000000000000000000000000000000000000000000000000000000000000000000000000000000000000000000000000 J
#500
0*
#504
1*
#508
0*
#512
1*
#516
0*
#520
1*
#524
0*
#528
1*
#532
0*
#536
1*
bx00000000000000000000000000000000000000000000000000000000000000000000000000000000000000000000000000000000 $
bx00000000000000000000000000000000000000000000000000000000000000000000000000000000000000000000000000000000 ;
bx00000000000000000000000000000000000000000000000000000000000000000000000000000000000000000000000000000000 J
#540
0*
#544
1*
#548
0*
#552
1*
#556
0*
#560
1*
#564
0*
#568
1*
#572
0*
#576
1*
bx0000000000000000000000000000000000000000000000000000000000000000000000000000000000000000000000000000000000000000 $
bx0000000000000000000000000000000000000000000000000000000000000000000000000000000000000000000000000000000000000000 ;
bx0000000000000000000000000000000000000000000000000000000000000000000000000000000000000000000000000000000000000000 J
#580
0*
#584
1*
#588
0*
#592
1*
#596
0*
#600
1*
#604
0*
#608
1*
#612
0*
#616
1*
bx000000000000000000000000000000000000000000000000000000000000000000000000000000000000000000000000000000000000000000000000 $
bx000000000000000000000000000000000000000000000000000000000000000000000000000000000000000000000000000000000000000000000000 ;
bx000000000000000000000000000000000000000000000000000000000000000000000000000000000000000000000000000000000000000000000000 J
#620
0*
#624
1*
#628
0*
#632
1*
#636
0*
#640
1*
#644
0*
#648
1*
#652
0*
#656
b11 E
b0 C
1*
0I
0&
b0 $
b0 ;
b0 J
#657
b0 ]
1}
0m
b0 M
#658
x2
b0 =
b0 >
b0 7
18
b0 0
#659
12
1:
b0 !
b0 D
#660
0*
#664
bx '
bx A
bx G
0%
b0 E
0(
1*
#665
1m
#666
11
#668
0*
#672
1*
#673
1m
#676
0*
#680
1*
#681
1m
#684
0*
#688
1*
#689
1m
